Revisión de muchos modelos y Ensamblado de modelos
…
   <chr>                <list>           <list>    <list>   
 1 MARS                 <tibble [1 x 4]> <opts[3]> <tune[+]>
 2 CART                 <tibble [1 x 4]> <opts[3]> <tune[+]>
 3 CART_bagged          <tibble [1 x 4]> <opts[3]> <rsmp[+]>
 4 RF                   <tibble [1 x 4]> <opts[3]> <tune[+]>
 5 boosting             <tibble [1 x 4]> <opts[3]> <tune[+]>
 6 Cubist               <tibble [1 x 4]> <opts[3]> <tune[+]>
 7 SVM_radial           <tibble [1 x 4]> <opts[3]> <tune[+]>
 8 SVM_poly             <tibble [1 x 4]> <opts[3]> <tune[+]>
 9 KNN                  <tibble [1 x 4]> <opts[3]> <tune[+]>
10 neural_network       <tibble [1 x 4]> <opts[4]> <tune[+]>
11 full_quad_linear_reg <tibble [1 x 4]> <opts[3]> <tune[+]>
12 full_quad_KNN        <tibble [1 x 4]> <opts[3]> <tune[+]>

# A tibble: 252 x 4
   model        .config                rmse  rank
   <chr>        <chr>                 <dbl> <int>
 1 boost_tree   Preprocessor1_Model04  4.25     1
 2 boost_tree   Preprocessor1_Model06  4.29     2
 3 boost_tree   Preprocessor1_Model13  4.31     3
 4 boost_tree   Preprocessor1_Model14  4.39     4
 5 boost_tree   Preprocessor1_Model16  4.46     5
 6 boost_tree   Preprocessor1_Model03  4.47     6
 7 boost_tree   Preprocessor1_Model15  4.48     7
 8 boost_tree   Preprocessor1_Model05  4.55     8
 9 boost_tree   Preprocessor1_Model20  4.71     9
10 cubist_rules Preprocessor1_Model24  4.71    10
# ... with 242 more rows
…
